Assignment 5 – Joseph Martinez: Broker & Aspiring Analyst
…
# Summarize total displaced by category per year
yearly_displacement <- demo %>%
  group_by(Year) %>%
  summarise(
    Men = sum(menDisplaced, na.rm = TRUE),
    Women = sum(womenDisplaced, na.rm = TRUE),
    Children = sum(childrenDisplaced, na.rm = TRUE)
  ) %>%
  pivot_longer(cols = c(Men, Women, Children),
               names_to = "Category",
               values_to = "Count")

yearly_displacement

# A tibble: 51 × 3
    Year Category Count
   <dbl> <chr>    <dbl>
 1  2009 Men        166
 2  2009 Women      150
 3  2009 Children   360
 4  2010 Men        194
 5  2010 Women      108
 6  2010 Children   291
 7  2011 Men        363
 8  2011 Women      110
 9  2011 Children   629
10  2012 Men        270
# ℹ 41 more rows
…
